[{
  "id": 1,
  "fecha": "1/22/2020",
  "importe": 69,
  "latitud": 25.710538,
  "longitud": 116.754472
}, {
  "id": 2,
  "fecha": "2/10/2020",
  "importe": 16,
  "latitud": -6.3486919,
  "longitud": 106.0419754
}, {
  "id": 3,
  "fecha": "10/12/2019",
  "importe": 81,
  "latitud": 62.107429,
  "longitud": 129.517113
}, {
  "id": 4,
  "fecha": "1/17/2020",
  "importe": 17,
  "latitud": 15.9121913,
  "longitud": 120.5841083
}, {
  "id": 5,
  "fecha": "12/13/2019",
  "importe": 53,
  "latitud": -7.1743383,
  "longitud": 108.5403799
}, {
  "id": 6,
  "fecha": "9/6/2019",
  "importe": 18,
  "latitud": 21.6936233,
  "longitud": -78.6313624
}, {
  "id": 7,
  "fecha": "12/16/2019",
  "importe": 23,
  "latitud": "53.16972",
  "longitud": "83.21333"
}, {
  "id": 8,
  "fecha": "10/10/2019",
  "importe": 99,
  "latitud": 21.951497,
  "longitud": 111.809478
}, {
  "id": 9,
  "fecha": "10/14/2019",
  "importe": 55,
  "latitud": 8.955271,
  "longitud": 126.009711
}, {
  "id": 10,
  "fecha": "6/9/2019",
  "importe": 2,
  "latitud": 22.6274369,
  "longitud": 114.0604907
}]
